# compile vhdl design source files
vhdl xil_defaultlib  \
"../../../../Top.srcs/sources_1/new/CLK_Divider.vhd" \
"../../../../Top.srcs/sources_1/new/Decoder.vhd" \
"../../../../Top.srcs/sources_1/new/Flicker.vhd" \
"../../../../Top.srcs/sources_1/new/Fsm.vhd" \
"../../../../Top.srcs/sources_1/new/Timer.vhd" \
"../../../../Top.srcs/sources_1/new/Top.vhd" \
"../../../../Top.srcs/sim_1/new/Top_tb.vhd" \

# Do not sort compile order
nosort
