# compile vhdl design source files
vhdl xil_defaultlib  \
"../../../../Temporizador.srcs/sources_1/new/Temp.vhd" \
"../../../../Temporizador.srcs/sim_1/new/Temp_tb.vhd" \

# Do not sort compile order
nosort
