# compile vhdl design source files
vhdl xil_defaultlib  \
"../../../../CLK_Divider.srcs/sources_1/new/CLK_Divider.vhd" \
"../../../../CLK_Divider.srcs/sim_1/new/CLK_Divider_tb.vhd" \

# Do not sort compile order
nosort
