#-----------------------------------------------------------
# Vivado v2019.1 (64-bit)
# SW Build 2552052 on Fri May 24 14:49:42 MDT 2019
# IP Build 2548770 on Fri May 24 18:01:18 MDT 2019
# Start of session at: Sun Dec 29 23:10:18 2019
# Process ID: 7292
# Current directory: C:/Users/javig/OneDrive/Escritorio/SED/TrabajoVHDL/CLK_Divider
# Command line: vivado.exe -gui_launcher_event rodinguilauncherevent15508 C:\Users\javig\OneDrive\Escritorio\SED\TrabajoVHDL\CLK_Divider\CLK_Divider.xpr
# Log file: C:/Users/javig/OneDrive/Escritorio/SED/TrabajoVHDL/CLK_Divider/vivado.log
# Journal file: C:/Users/javig/OneDrive/Escritorio/SED/TrabajoVHDL/CLK_Divider\vivado.jou
#-----------------------------------------------------------
start_gui
open_project C:/Users/javig/OneDrive/Escritorio/SED/TrabajoVHDL/CLK_Divider/CLK_Divider.xpr
Scanning sources...
Finished scanning sources
INFO: [IP_Flow 19-234] Refreshing IP repositories
INFO: [IP_Flow 19-1704] No user IP repositories specified
INFO: [Common 17-41] Interrupt caught. Command should exit soon.
INFO: [IP_Flow 19-2313] Loaded Vivado IP repository 'C:/Xilinx/Vivado/2019.1/data/ip'.
INFO: [IP_Flow 19-2338] Canceling the changes to the IP catalog. Reverting the catalog back to its previous state.
INFO: [IP_Flow 19-2340] The IP catalog has been returned to its previous state.
INFO: [Common 17-344] 'open_project' was cancelled
exit
INFO: [Common 17-206] Exiting Vivado at Sun Dec 29 23:17:33 2019...
