#-----------------------------------------------------------
# Vivado v2019.1 (64-bit)
# SW Build 2552052 on Fri May 24 14:49:42 MDT 2019
# IP Build 2548770 on Fri May 24 18:01:18 MDT 2019
# Start of session at: Wed Jan 15 12:06:25 2020
# Process ID: 2332
# Current directory: C:/Users/javig/OneDrive/Escritorio/SED/TrabajoVHDL/Decoder
# Command line: vivado.exe -gui_launcher_event rodinguilauncherevent8228 C:\Users\javig\OneDrive\Escritorio\SED\TrabajoVHDL\Decoder\Decoder.xpr
# Log file: C:/Users/javig/OneDrive/Escritorio/SED/TrabajoVHDL/Decoder/vivado.log
# Journal file: C:/Users/javig/OneDrive/Escritorio/SED/TrabajoVHDL/Decoder\vivado.jou
#-----------------------------------------------------------
start_gui
open_project C:/Users/javig/OneDrive/Escritorio/SED/TrabajoVHDL/Decoder/Decoder.xpr
Scanning sources...
Finished scanning sources
INFO: [IP_Flow 19-234] Refreshing IP repositories
INFO: [IP_Flow 19-1704] No user IP repositories specified
INFO: [IP_Flow 19-2313] Loaded Vivado IP repository 'C:/Xilinx/Vivado/2019.1/data/ip'.
open_project: Time (s): cpu = 00:00:18 ; elapsed = 00:00:14 . Memory (MB): peak = 698.219 ; gain = 69.922
update_compile_order -fileset sources_1
launch_simulation
INFO: [Vivado 12-5682] Launching behavioral simulation in 'C:/Users/javig/OneDrive/Escritorio/SED/TrabajoVHDL/Decoder/Decoder.sim/sim_1/behav/xsim'
INFO: [SIM-utils-51] Simulation object is 'sim_1'
INFO: [SIM-utils-54] Inspecting design source files for 'Decoder_tb' in fileset 'sim_1'...
INFO: [USF-XSim-97] Finding global include files...
INFO: [USF-XSim-98] Fetching design files from 'sim_1'...
INFO: [USF-XSim-2] XSim::Compile design
INFO: [USF-XSim-61] Executing 'COMPILE and ANALYZE' step in 'C:/Users/javig/OneDrive/Escritorio/SED/TrabajoVHDL/Decoder/Decoder.sim/sim_1/behav/xsim'
"xvhdl --incr --relax -prj Decoder_tb_vhdl.prj"
INFO: [VRFC 10-163] Analyzing VHDL file "C:/Users/javig/OneDrive/Escritorio/SED/TrabajoVHDL/Decoder/Decoder.srcs/sources_1/new/Decoder.vhd" into library xil_defaultlib
INFO: [VRFC 10-3107] analyzing entity 'Decoder'
INFO: [VRFC 10-163] Analyzing VHDL file "C:/Users/javig/OneDrive/Escritorio/SED/TrabajoVHDL/Decoder/Decoder.srcs/sim_1/new/Decoder_tb.vhd" into library xil_defaultlib
INFO: [VRFC 10-3107] analyzing entity 'Decoder_tb'
INFO: [USF-XSim-69] 'compile' step finished in '2' seconds
INFO: [USF-XSim-3] XSim::Elaborate design
INFO: [USF-XSim-61] Executing 'ELABORATE' step in 'C:/Users/javig/OneDrive/Escritorio/SED/TrabajoVHDL/Decoder/Decoder.sim/sim_1/behav/xsim'
"xelab -wto 7200e8436f244208968ae15b3a1c8a2b --incr --debug typical --relax --mt 2 -L xil_defaultlib -L secureip --snapshot Decoder_tb_behav xil_defaultlib.Decoder_tb -log elaborate.log"
Vivado Simulator 2019.1
Copyright 1986-1999, 2001-2019 Xilinx, Inc. All Rights Reserved.
Running: C:/Xilinx/Vivado/2019.1/bin/unwrapped/win64.o/xelab.exe -wto 7200e8436f244208968ae15b3a1c8a2b --incr --debug typical --relax --mt 2 -L xil_defaultlib -L secureip --snapshot Decoder_tb_behav xil_defaultlib.Decoder_tb -log elaborate.log 
Using 2 slave threads.
Starting static elaboration
Completed static elaboration
Starting simulation data flow analysis
Completed simulation data flow analysis
Time Resolution for simulation is 1ps
Compiling package std.standard
Compiling package std.textio
Compiling package ieee.std_logic_1164
Compiling package ieee.numeric_std
Compiling architecture behavioral of entity xil_defaultlib.Decoder [decoder_default]
Compiling architecture behavior of entity xil_defaultlib.decoder_tb
Built simulation snapshot Decoder_tb_behav

****** Webtalk v2019.1 (64-bit)
  **** SW Build 2552052 on Fri May 24 14:49:42 MDT 2019
  **** IP Build 2548770 on Fri May 24 18:01:18 MDT 2019
    ** Copyright 1986-2019 Xilinx, Inc. All Rights Reserved.

source C:/Users/javig/OneDrive/Escritorio/SED/TrabajoVHDL/Decoder/Decoder.sim/sim_1/behav/xsim/xsim.dir/Decoder_tb_behav/webtalk/xsim_webtalk.tcl -notrace
INFO: [Common 17-186] 'C:/Users/javig/OneDrive/Escritorio/SED/TrabajoVHDL/Decoder/Decoder.sim/sim_1/behav/xsim/xsim.dir/Decoder_tb_behav/webtalk/usage_statistics_ext_xsim.xml' has been successfully sent to Xilinx on Wed Jan 15 12:08:57 2020. For additional details about this file, please refer to the WebTalk help file at C:/Xilinx/Vivado/2019.1/doc/webtalk_introduction.html.
INFO: [Common 17-206] Exiting Webtalk at Wed Jan 15 12:08:57 2020...
run_program: Time (s): cpu = 00:00:02 ; elapsed = 00:00:09 . Memory (MB): peak = 755.109 ; gain = 0.000
INFO: [USF-XSim-69] 'elaborate' step finished in '8' seconds
INFO: [USF-XSim-4] XSim::Simulate design
INFO: [USF-XSim-61] Executing 'SIMULATE' step in 'C:/Users/javig/OneDrive/Escritorio/SED/TrabajoVHDL/Decoder/Decoder.sim/sim_1/behav/xsim'
INFO: [USF-XSim-98] *** Running xsim
   with args "Decoder_tb_behav -key {Behavioral:sim_1:Functional:Decoder_tb} -tclbatch {Decoder_tb.tcl} -log {simulate.log}"
INFO: [USF-XSim-8] Loading simulator feature
Vivado Simulator 2019.1
Time resolution is 1 ps
source Decoder_tb.tcl
# set curr_wave [current_wave_config]
# if { [string length $curr_wave] == 0 } {
#   if { [llength [get_objects]] > 0} {
#     add_wave /
#     set_property needs_save false [current_wave_config]
#   } else {
#      send_msg_id Add_Wave-1 WARNING "No top level signals found. Simulator will start without a wave window. If you want to open a wave window go to 'File->New Waveform Configuration' or type 'create_wave_config' in the TCL console."
#   }
# }
# run 25s
INFO: [USF-XSim-96] XSim completed. Design snapshot 'Decoder_tb_behav' loaded.
INFO: [USF-XSim-97] XSim simulation ran for 25s
launch_simulation: Time (s): cpu = 00:00:13 ; elapsed = 00:00:17 . Memory (MB): peak = 777.527 ; gain = 22.418
close_sim
INFO: [Simtcl 6-16] Simulation closed
close_sim: Time (s): cpu = 00:00:04 ; elapsed = 00:00:09 . Memory (MB): peak = 781.113 ; gain = 0.000
launch_simulation
INFO: [Vivado 12-5682] Launching behavioral simulation in 'C:/Users/javig/OneDrive/Escritorio/SED/TrabajoVHDL/Decoder/Decoder.sim/sim_1/behav/xsim'
INFO: [SIM-utils-51] Simulation object is 'sim_1'
INFO: [SIM-utils-54] Inspecting design source files for 'Decoder_tb' in fileset 'sim_1'...
INFO: [USF-XSim-97] Finding global include files...
INFO: [USF-XSim-98] Fetching design files from 'sim_1'...
INFO: [USF-XSim-2] XSim::Compile design
INFO: [USF-XSim-61] Executing 'COMPILE and ANALYZE' step in 'C:/Users/javig/OneDrive/Escritorio/SED/TrabajoVHDL/Decoder/Decoder.sim/sim_1/behav/xsim'
"xvhdl --incr --relax -prj Decoder_tb_vhdl.prj"
INFO: [VRFC 10-163] Analyzing VHDL file "C:/Users/javig/OneDrive/Escritorio/SED/TrabajoVHDL/Decoder/Decoder.srcs/sources_1/new/Decoder.vhd" into library xil_defaultlib
INFO: [VRFC 10-3107] analyzing entity 'Decoder'
INFO: [VRFC 10-163] Analyzing VHDL file "C:/Users/javig/OneDrive/Escritorio/SED/TrabajoVHDL/Decoder/Decoder.srcs/sim_1/new/Decoder_tb.vhd" into library xil_defaultlib
INFO: [VRFC 10-3107] analyzing entity 'Decoder_tb'
INFO: [USF-XSim-69] 'compile' step finished in '3' seconds
INFO: [USF-XSim-3] XSim::Elaborate design
INFO: [USF-XSim-61] Executing 'ELABORATE' step in 'C:/Users/javig/OneDrive/Escritorio/SED/TrabajoVHDL/Decoder/Decoder.sim/sim_1/behav/xsim'
"xelab -wto 7200e8436f244208968ae15b3a1c8a2b --incr --debug typical --relax --mt 2 -L xil_defaultlib -L secureip --snapshot Decoder_tb_behav xil_defaultlib.Decoder_tb -log elaborate.log"
Vivado Simulator 2019.1
Copyright 1986-1999, 2001-2019 Xilinx, Inc. All Rights Reserved.
Running: C:/Xilinx/Vivado/2019.1/bin/unwrapped/win64.o/xelab.exe -wto 7200e8436f244208968ae15b3a1c8a2b --incr --debug typical --relax --mt 2 -L xil_defaultlib -L secureip --snapshot Decoder_tb_behav xil_defaultlib.Decoder_tb -log elaborate.log 
Using 2 slave threads.
Starting static elaboration
Completed static elaboration
Starting simulation data flow analysis
Completed simulation data flow analysis
Time Resolution for simulation is 1ps
Compiling package std.standard
Compiling package std.textio
Compiling package ieee.std_logic_1164
Compiling package ieee.numeric_std
Compiling architecture behavioral of entity xil_defaultlib.Decoder [decoder_default]
Compiling architecture behavior of entity xil_defaultlib.decoder_tb
Built simulation snapshot Decoder_tb_behav
INFO: [USF-XSim-69] 'elaborate' step finished in '2' seconds
INFO: [USF-XSim-4] XSim::Simulate design
INFO: [USF-XSim-61] Executing 'SIMULATE' step in 'C:/Users/javig/OneDrive/Escritorio/SED/TrabajoVHDL/Decoder/Decoder.sim/sim_1/behav/xsim'
INFO: [USF-XSim-98] *** Running xsim
   with args "Decoder_tb_behav -key {Behavioral:sim_1:Functional:Decoder_tb} -tclbatch {Decoder_tb.tcl} -log {simulate.log}"
INFO: [USF-XSim-8] Loading simulator feature
Vivado Simulator 2019.1
Time resolution is 1 ps
source Decoder_tb.tcl
# set curr_wave [current_wave_config]
# if { [string length $curr_wave] == 0 } {
#   if { [llength [get_objects]] > 0} {
#     add_wave /
#     set_property needs_save false [current_wave_config]
#   } else {
#      send_msg_id Add_Wave-1 WARNING "No top level signals found. Simulator will start without a wave window. If you want to open a wave window go to 'File->New Waveform Configuration' or type 'create_wave_config' in the TCL console."
#   }
# }
# run 25s
INFO: [USF-XSim-96] XSim completed. Design snapshot 'Decoder_tb_behav' loaded.
INFO: [USF-XSim-97] XSim simulation ran for 25s
launch_simulation: Time (s): cpu = 00:00:03 ; elapsed = 00:00:07 . Memory (MB): peak = 781.113 ; gain = 0.000
close_sim
INFO: [Simtcl 6-16] Simulation closed
