# compile vhdl design source files
vhdl xil_defaultlib  \
"../../../../TopPruebaTemp.srcs/sources_1/new/CLK_Divider.vhd" \
"../../../../TopPruebaTemp.srcs/sources_1/new/Decoder.vhd" \
"../../../../TopPruebaTemp.srcs/sources_1/new/Temp.vhd" \
"../../../../TopPruebaTemp.srcs/sources_1/new/PruebaTemp.vhd" \

# Do not sort compile order
nosort
